I2C/I2C.vcd
$date
	Sat Sep 22 14:03:00 2018
$end
$version
	Icarus Verilog
$end
$timescale
	1ns
$end
$scope module test_I2C $end
$var wire 1 ! LEDB $end
$var wire 1 " LEDG $end
$var wire 1 # LEDR $end
$var wire 1 $ SCL $end
$var wire 1 % SDA $end
$var wire 1 & sendACK $end
$var wire 3 ' state [2:0] $end
$var reg 1 ( clk $end
$var reg 1 ) ledB $end
$var reg 1 * ledG $end
$var reg 1 + ledR $end
$var reg 1 , scl $end
$var reg 1 - sda $end
$scope module i2c1 $end
$var wire 1 $ SCL $end
$var wire 1 . SCL_negedge $end
$var wire 1 / SCL_posedge $end
$var wire 1 % SDA $end
$var wire 1 0 SDA_in $end
$var wire 1 1 SDA_out $end
$var wire 1 2 clk $end
$var wire 1 & driveSDA $end
$var wire 1 ! ledB $end
$var wire 1 " ledG $end
$var wire 1 # ledR $end
$var wire 3 3 stateO [2:0] $end
$var reg 8 4 IOout [7:0] $end
$var reg 4 5 SCL_sync [3:0] $end
$var reg 4 6 SDA_sync [3:0] $end
$var reg 3 7 bit [2:0] $end
$var reg 1 8 sendACK $end
$var reg 1 9 started $end
$var reg 3 : state [2:0] $end
$upscope $end
$upscope $end
$enddefinitions $end
#0
$dumpvars
bx :
09
18
bx 7
b0 6
b0 5
bx 4
bx 3
02
01
z0
0/
0.
1-
1,
0+
0*
0)
0(
bx '
1&
1%
1$
x#
x"
x!
$end
#1
b1 5
b0z 6
b0 :
b0 '
b0 3
1(
12
#2
0(
02
#3
b0zz 6
b11 5
b111 7
1(
12
#4
0(
02
#5
b111 5
1/
b0zzz 6
1(
12
#6
0(
02
#7
bz 6
b1111 5
0/
1(
12
#8
0(
02
#9
1(
12
#10
0(
02
#11
1(
12
#12
0(
02
#13
1(
12
#14
0(
02
#15
1(
12
#16
0(
02
#17
1(
12
#18
0(
02
#19
1(
12
#20
0(
02
#21
1(
12
#22
0(
02
#23
1(
12
#24
0(
02
#25
1(
12
#26
0(
02
#27
1(
12
#28
0(
02
#29
1(
12
#30
0(
02
#31
1(
12
#32
0(
02
#33
1(
12
#34
0(
02
#35
1(
12
0-
0%
#36
0(
02
#37
1(
12
#38
0(
02
#39
1(
12
#40
0(
02
#41
1(
12
#42
0(
02
#43
1(
12
#44
0(
02
#45
1(
12
#46
0(
02
#47
1(
12
#48
0(
02
#49
1(
12
#50
0(
02
#51
1(
12
#52
0(
02
#53
1(
12
#54
0(
02
#55
1(
12
#56
0(
02
#57
1(
12
#58
0(
02
#59
1(
12
#60
0(
02
0,
0$
#61
b1110 5
1(
12
#62
0(
02
#63
b1100 5
1(
12
#64
0(
02
#65
b1000 5
1.
1(
12
#66
0(
02
#67
b0 5
0.
1(
12
#68
0(
02
#69
1(
12
#70
0(
02
#71
1(
12
#72
0(
02
#73
1(
12
#74
0(
02
#75
1(
12
#76
0(
02
#77
1(
12
#78
0(
02
#79
1(
12
#80
0(
02
#81
1(
12
#82
0(
02
#83
1(
12
#84
0(
02
#85
b1 5
1(
12
1,
1$
#86
0(
02
#87
b11 5
1(
12
#88
0(
02
#89
b111 5
1/
1(
12
#90
0(
02
#91
b1111 5
0/
1(
12
#92
0(
02
#93
1(
12
#94
0(
02
#95
1(
12
#96
0(
02
#97
1(
12
#98
0(
02
#99
1(
12
#100
0(
02
#101
1(
12
#102
0(
02
#103
1(
12
#104
0(
02
#105
1(
12
#106
0(
02
#107
1(
12
#108
0(
02
#109
1(
12
#110
0(
02
0,
0$
#111
b1110 5
1(
12
#112
0(
02
#113
b1100 5
1(
12
#114
0(
02
#115
b1000 5
1.
1(
12
#116
0(
02
#117
b0 5
0.
1(
12
#118
0(
02
#119
1(
12
#120
0(
02
#121
1(
12
#122
0(
02
#123
1(
12
#124
0(
02
#125
1(
12
#126
0(
02
#127
1(
12
#128
0(
02
#129
1(
12
#130
0(
02
#131
1(
12
#132
0(
02
1-
1%
#133
1(
12
#134
0(
02
#135
b1 5
1(
12
1,
1$
#136
0(
02
#137
b11 5
1(
12
#138
0(
02
#139
b111 5
1/
1(
12
#140
0(
02
#141
b1111 5
0/
1(
12
#142
0(
02
#143
1(
12
#144
0(
02
#145
1(
12
#146
0(
02
#147
1(
12
#148
0(
02
#149
1(
12
#150
0(
02
#151
1(
12
#152
0(
02
#153
1(
12
#154
0(
02
#155
1(
12
#156
0(
02
#157
1(
12
#158
0(
02
#159
1(
12
#160
0(
02
0,
0$
#161
b1110 5
1(
12
#162
0(
02
#163
b1100 5
1(
12
#164
0(
02
#165
b1000 5
1.
1(
12
#166
0(
02
#167
b0 5
0.
1(
12
#168
0(
02
#169
1(
12
#170
0(
02
#171
1(
12
#172
0(
02
#173
1(
12
#174
0(
02
#175
1(
12
#176
0(
02
#177
1(
12
#178
0(
02
#179
1(
12
#180
0(
02
#181
1(
12
#182
0(
02
0-
0%
#183
1(
12
#184
0(
02
#185
b1 5
1(
12
1,
1$
#186
0(
02
#187
b11 5
1(
12
#188
0(
02
#189
b111 5
1/
1(
12
#190
0(
02
#191
b1111 5
0/
1(
12
#192
0(
02
#193
1(
12
#194
0(
02
#195
1(
12
#196
0(
02
#197
1(
12
#198
0(
02
#199
1(
12
#200
0(
02
#201
1(
12
#202
0(
02
#203
1(
12
#204
0(
02
#205
1(
12
#206
0(
02
#207
1(
12
#208
0(
02
#209
1(
12
#210
0(
02
0,
0$
#211
b1110 5
1(
12
#212
0(
02
#213
b1100 5
1(
12
#214
0(
02
#215
b1000 5
1.
1(
12
#216
0(
02
#217
b0 5
0.
1(
12
#218
0(
02
#219
1(
12
#220
0(
02
#221
1(
12
#222
0(
02
#223
1(
12
#224
0(
02
#225
1(
12
#226
0(
02
#227
1(
12
#228
0(
02
#229
1(
12
#230
0(
02
#231
1(
12
#232
0(
02
#233
1(
12
#234
0(
02
#235
b1 5
1(
12
1,
1$
#236
0(
02
#237
b11 5
1(
12
#238
0(
02
#239
b111 5
1/
1(
12
#240
0(
02
#241
b1111 5
0/
1(
12
#242
0(
02
#243
1(
12
#244
0(
02
#245
1(
12
#246
0(
02
#247
1(
12
#248
0(
02
#249
1(
12
#250
0(
02
#251
1(
12
#252
0(
02
#253
1(
12
#254
0(
02
#255
1(
12
#256
0(
02
#257
1(
12
#258
0(
02
#259
1(
12
#260
0(
02
0,
0$
#261
b1110 5
1(
12
#262
0(
02
#263
b1100 5
1(
12
#264
0(
02
#265
b1000 5
1.
1(
12
#266
0(
02
#267
b0 5
0.
1(
12
#268
0(
02
#269
1(
12
#270
0(
02
#271
1(
12
#272
0(
02
#273
1(
12
#274
0(
02
#275
1(
12
#276
0(
02
#277
1(
12
#278
0(
02
#279
1(
12
#280
0(
02
#281
1(
12
#282
0(
02
1-
1%
#283
1(
12
#284
0(
02
#285
b1 5
1(
12
1,
1$
#286
0(
02
#287
b11 5
1(
12
#288
0(
02
#289
b111 5
1/
1(
12
#290
0(
02
#291
b1111 5
0/
1(
12
#292
0(
02
#293
1(
12
#294
0(
02
#295
1(
12
#296
0(
02
#297
1(
12
#298
0(
02
#299
1(
12
#300
0(
02
#301
1(
12
#302
0(
02
#303
1(
12
#304
0(
02
#305
1(
12
#306
0(
02
#307
1(
12
#308
0(
02
#309
1(
12
#310
0(
02
0,
0$
#311
b1110 5
1(
12
#312
0(
02
#313
b1100 5
1(
12
#314
0(
02
#315
b1000 5
1.
1(
12
#316
0(
02
#317
b0 5
0.
1(
12
#318
0(
02
#319
1(
12
#320
0(
02
#321
1(
12
#322
0(
02
#323
1(
12
#324
0(
02
#325
1(
12
#326
0(
02
#327
1(
12
#328
0(
02
#329
1(
12
#330
0(
02
#331
1(
12
#332
0(
02
0-
0%
#333
1(
12
#334
0(
02
#335
b1 5
1(
12
1,
1$
#336
0(
02
#337
b11 5
1(
12
#338
0(
02
#339
b111 5
1/
1(
12
#340
0(
02
#341
b1111 5
0/
1(
12
#342
0(
02
#343
1(
12
#344
0(
02
#345
1(
12
#346
0(
02
#347
1(
12
#348
0(
02
#349
1(
12
#350
0(
02
#351
1(
12
#352
0(
02
#353
1(
12
#354
0(
02
#355
1(
12
#356
0(
02
#357
1(
12
#358
0(
02
#359
1(
12
#360
0(
02
0,
0$
#361
b1110 5
1(
12
#362
0(
02
#363
b1100 5
1(
12
#364
0(
02
#365
b1000 5
1.
1(
12
#366
0(
02
#367
b0 5
0.
1(
12
#368
0(
02
#369
1(
12
#370
0(
02
#371
1(
12
#372
0(
02
#373
1(
12
#374
0(
02
#375
1(
12
#376
0(
02
#377
1(
12
#378
0(
02
#379
1(
12
#380
0(
02
#381
1(
12
#382
0(
02
#383
1(
12
#384
0(
02
#385
b1 5
1(
12
1,
1$
#386
0(
02
#387
b11 5
1(
12
#388
0(
02
#389
b111 5
1/
1(
12
#390
0(
02
#391
b1111 5
0/
1(
12
#392
0(
02
#393
1(
12
#394
0(
02
#395
1(
12
#396
0(
02
#397
1(
12
#398
0(
02
#399
1(
12
#400
0(
02
#401
1(
12
#402
0(
02
#403
1(
12
#404
0(
02
#405
1(
12
#406
0(
02
#407
1(
12
#408
0(
02
#409
1(
12
#410
0(
02
0,
0$
#411
b1110 5
1(
12
#412
0(
02
#413
b1100 5
1(
12
#414
0(
02
#415
b1000 5
1.
1(
12
#416
0(
02
#417
b0 5
0.
1(
12
#418
0(
02
#419
1(
12
#420
0(
02
#421
1(
12
#422
0(
02
#423
1(
12
#424
0(
02
#425
1(
12
#426
0(
02
#427
1(
12
#428
0(
02
#429
1(
12
#430
0(
02
#431
1(
12
#432
0(
02
#433
1(
12
#434
0(
02
#435
b1 5
1(
12
1,
1$
#436
0(
02
#437
b11 5
1(
12
#438
0(
02
#439
b111 5
1/
1(
12
#440
0(
02
#441
b1111 5
0/
1(
12
#442
0(
02
#443
1(
12
#444
0(
02
#445
1(
12
#446
0(
02
#447
1(
12
#448
0(
02
#449
1(
12
#450
0(
02
#451
1(
12
#452
0(
02
#453
1(
12
#454
0(
02
#455
1(
12
#456
0(
02
#457
1(
12
#458
0(
02
#459
1(
12
#460
0(
02
0,
0$
#461
b1110 5
1(
12
#462
0(
02
#463
b1100 5
1(
12
#464
0(
02
#465
b1000 5
1.
1(
12
#466
0(
02
#467
b0 5
0.
1(
12
#468
0(
02
#469
1(
12
#470
0(
02
#471
1(
12
#472
0(
02
#473
1(
12
#474
0(
02
#475
1(
12
#476
0(
02
#477
1(
12
#478
0(
02
#479
1(
12
#480
0(
02
#481
1(
12
#482
0(
02
z-
z%
#483
1(
12
#484
0(
02
#485
b1 5
1(
12
1,
1$
#486
0(
02
#487
b11 5
1(
12
#488
0(
02
#489
b111 5
1/
1(
12
#490
0(
02
#491
b1111 5
0/
1(
12
#492
0(
02
#493
1(
12
#494
0(
02
#495
1(
12
#496
0(
02
#497
1(
12
#498
0(
02
#499
1(
12
#500
0(
02
#501
1(
12
#502
0(
02
#503
1(
12
#504
0(
02
#505
1(
12
#506
0(
02
#507
1(
12
#508
0(
02
#509
1(
12
#510
0(
02
0,
0$
#511
b1110 5
1(
12
#512
0(
02
#513
b1100 5
1(
12
#514
0(
02
#515
b1000 5
1.
1(
12
#516
0(
02
#517
b0 5
0.
1(
12
#518
0(
02
#519
1(
12
#520
0(
02
#521
1(
12
#522
0(
02
#523
1(
12
#524
0(
02
#525
1(
12
#526
0(
02
#527
1(
12
#528
0(
02
#529
1(
12
#530
0(
02
#531
1(
12
#532
0(
02
#533
1(
12
#534
0(
02
#535
b1 5
1(
12
1,
1$
0-
0%
#536
0(
02
#537
b11 5
1(
12
#538
0(
02
#539
b111 5
1/
1(
12
#540
0(
02
#541
b1111 5
0/
1(
12
#542
0(
02
#543
1(
12
#544
0(
02
#545
1(
12
#546
0(
02
#547
1(
12
#548
0(
02
#549
1(
12
#550
0(
02
#551
1(
12
#552
0(
02
#553
1(
12
#554
0(
02
#555
1(
12
#556
0(
02
#557
1(
12
#558
0(
02
#559
1(
12
#560
0(
02
0,
0$
#561
b1110 5
1(
12
#562
0(
02
#563
b1100 5
1(
12
#564
0(
02
#565
b1000 5
1.
1(
12
#566
0(
02
#567
b0 5
0.
1(
12
#568
0(
02
#569
1(
12
#570
0(
02
#571
1(
12
#572
0(
02
#573
1(
12
#574
0(
02
#575
1(
12
#576
0(
02
#577
1(
12
#578
0(
02
#579
1(
12
#580
0(
02
#581
1(
12
#582
0(
02
#583
1(
12
#584
0(
02
#585
b1 5
1(
12
1,
1$
1-
1%
#586
0(
02
#587
b11 5
1(
12
#588
0(
02
#589
b111 5
1/
1(
12
#590
0(
02
#591
b1111 5
0/
1(
12
#592
0(
02
#593
1(
12
#594
0(
02
#595
1(
12
#596
0(
02
#597
1(
12
#598
0(
02
#599
1(
12
#600
0(
02
#601
1(
12
#602
0(
02
#603
1(
12
#604
0(
02
#605
1(
12
#606
0(
02
#607
1(
12
#608
0(
02
#609
1(
12
#610
0(
02
0,
0$
#611
b1110 5
1(
12
#612
0(
02
#613
b1100 5
1(
12
#614
0(
02
#615
b1000 5
1.
1(
12
#616
0(
02
#617
b0 5
0.
1(
12
#618
0(
02
#619
1(
12
#620
0(
02
#621
1(
12
#622
0(
02
#623
1(
12
#624
0(
02
#625
1(
12
#626
0(
02
#627
1(
12
#628
0(
02
#629
1(
12
#630
0(
02
#631
1(
12
#632
0(
02
#633
1(
12
#634
0(
02
#635
b1 5
1(
12
1,
1$
0-
0%
#636
0(
02
#637
b11 5
1(
12
#638
0(
02
#639
b111 5
1/
1(
12
#640
0(
02
#641
b1111 5
0/
1(
12
#642
0(
02
#643
1(
12
#644
0(
02
#645
1(
12
#646
0(
02
#647
1(
12
#648
0(
02
#649
1(
12
#650
0(
02
#651
1(
12
#652
0(
02
#653
1(
12
#654
0(
02
#655
1(
12
#656
0(
02
#657
1(
12
#658
0(
02
#659
1(
12
#660
0(
02
0,
0$
#661
b1110 5
1(
12
#662
0(
02
#663
b1100 5
1(
12
#664
0(
02
#665
b1000 5
1.
1(
12
#666
0(
02
#667
b0 5
0.
1(
12
#668
0(
02
#669
1(
12
#670
0(
02
#671
1(
12
#672
0(
02
#673
1(
12
#674
0(
02
#675
1(
12
#676
0(
02
#677
1(
12
#678
0(
02
#679
1(
12
#680
0(
02
#681
1(
12
#682
0(
02
#683
1(
12
#684
0(
02
#685
b1 5
1(
12
1,
1$
1-
1%
#686
0(
02
#687
b11 5
1(
12
#688
0(
02
#689
b111 5
1/
1(
12
#690
0(
02
#691
b1111 5
0/
1(
12
#692
0(
02
#693
1(
12
#694
0(
02
#695
1(
12
#696
0(
02
#697
1(
12
#698
0(
02
#699
1(
12
#700
0(
02
#701
1(
12
#702
0(
02
#703
1(
12
#704
0(
02
#705
1(
12
#706
0(
02
#707
1(
12
#708
0(
02
#709
1(
12
#710
0(
02
0,
0$
#711
b1110 5
1(
12
#712
0(
02
#713
b1100 5
1(
12
#714
0(
02
#715
b1000 5
1.
1(
12
#716
0(
02
#717
b0 5
0.
1(
12
#718
0(
02
#719
1(
12
#720
0(
02
#721
1(
12
#722
0(
02
#723
1(
12
#724
0(
02
#725
1(
12
#726
0(
02
#727
1(
12
#728
0(
02
#729
1(
12
#730
0(
02
#731
1(
12
#732
0(
02
#733
1(
12
#734
0(
02
#735
b1 5
1(
12
1,
1$
#736
0(
02
#737
b11 5
1(
12
#738
0(
02
#739
b111 5
1/
1(
12
#740
0(
02
#741
b1111 5
0/
1(
12
#742
0(
02
#743
1(
12
#744
0(
02
#745
1(
12
#746
0(
02
#747
1(
12
#748
0(
02
#749
1(
12
#750
0(
02
#751
1(
12
#752
0(
02
#753
1(
12
#754
0(
02
#755
1(
12
#756
0(
02
#757
1(
12
#758
0(
02
#759
1(
12
#760
0(
02
0,
0$
#761
b1110 5
1(
12
#762
0(
02
#763
b1100 5
1(
12
#764
0(
02
#765
b1000 5
1.
1(
12
#766
0(
02
#767
b0 5
0.
1(
12
#768
0(
02
#769
1(
12
#770
0(
02
#771
1(
12
#772
0(
02
#773
1(
12
#774
0(
02
#775
1(
12
#776
0(
02
#777
1(
12
#778
0(
02
#779
1(
12
#780
0(
02
#781
1(
12
#782
0(
02
#783
1(
12
#784
0(
02
#785
b1 5
1(
12
1,
1$
0-
0%
#786
0(
02
#787
b11 5
1(
12
#788
0(
02
#789
b111 5
1/
1(
12
#790
0(
02
#791
b1111 5
0/
1(
12
#792
0(
02
#793
1(
12
#794
0(
02
#795
1(
12
#796
0(
02
#797
1(
12
#798
0(
02
#799
1(
12
#800
0(
02
#801
1(
12
#802
0(
02
#803
1(
12
#804
0(
02
#805
1(
12
#806
0(
02
#807
1(
12
#808
0(
02
#809
1(
12
#810
0(
02
0,
0$
#811
b1110 5
1(
12
#812
0(
02
#813
b1100 5
1(
12
#814
0(
02
#815
b1000 5
1.
1(
12
#816
0(
02
#817
b0 5
0.
1(
12
#818
0(
02
#819
1(
12
#820
0(
02
#821
1(
12
#822
0(
02
#823
1(
12
#824
0(
02
#825
1(
12
#826
0(
02
#827
1(
12
#828
0(
02
#829
1(
12
#830
0(
02
#831
1(
12
#832
0(
02
#833
1(
12
#834
0(
02
#835
b1 5
1(
12
1,
1$
1-
1%
#836
0(
02
#837
b11 5
1(
12
#838
0(
02
#839
b111 5
1/
1(
12
#840
0(
02
#841
b1111 5
0/
1(
12
#842
0(
02
#843
1(
12
#844
0(
02
#845
1(
12
#846
0(
02
#847
1(
12
#848
0(
02
#849
1(
12
#850
0(
02
#851
1(
12
#852
0(
02
#853
1(
12
#854
0(
02
#855
1(
12
#856
0(
02
#857
1(
12
#858
0(
02
#859
1(
12
#860
0(
02
0,
0$
#861
b1110 5
1(
12
#862
0(
02
#863
b1100 5
1(
12
#864
0(
02
#865
b1000 5
1.
1(
12
#866
0(
02
#867
b0 5
0.
1(
12
#868
0(
02
#869
1(
12
#870
0(
02
#871
1(
12
#872
0(
02
#873
1(
12
#874
0(
02
#875
1(
12
#876
0(
02
#877
1(
12
#878
0(
02
#879
1(
12
#880
0(
02
#881
1(
12
#882
0(
02
#883
1(
12
#884
0(
02
#885
b1 5
1(
12
1,
1$
0-
0%
#886
0(
02
#887
b11 5
1(
12
#888
0(
02
#889
b111 5
1/
1(
12
#890
0(
02
#891
b1111 5
0/
1(
12
#892
0(
02
#893
1(
12
#894
0(
02
#895
1(
12
#896
0(
02
#897
1(
12
#898
0(
02
#899
1(
12
#900
0(
02
#901
1(
12
#902
0(
02
#903
1(
12
#904
0(
02
#905
1(
12
#906
0(
02
#907
1(
12
#908
0(
02
#909
1(
12
#910
0(
02
0,
0$
#911
b1110 5
1(
12
#912
0(
02
#913
b1100 5
1(
12
#914
0(
02
#915
b1000 5
1.
1(
12
#916
0(
02
#917
b0 5
0.
1(
12
#918
0(
02
#919
1(
12
#920
0(
02
#921
1(
12
#922
0(
02
#923
1(
12
#924
0(
02
#925
1(
12
#926
0(
02
#927
1(
12
#928
0(
02
#929
1(
12
#930
0(
02
#931
1(
12
#932
0(
02
#933
1(
12
#934
0(
02
#935
b1 5
1(
12
1,
1$
z-
z%
#936
0(
02
#937
b11 5
1(
12
#938
0(
02
#939
b111 5
1/
1(
12
#940
0(
02
#941
b1111 5
0/
1(
12
#942
0(
02
#943
1(
12
#944
0(
02
#945
1(
12
#946
0(
02
#947
1(
12
#948
0(
02
#949
1(
12
#950
0(
02
#951
1(
12
#952
0(
02
#953
1(
12
#954
0(
02
#955
1(
12
#956
0(
02
#957
1(
12
#958
0(
02
#959
1(
12
#960
0(
02
0,
0$
#961
b1110 5
1(
12
#962
0(
02
#963
b1100 5
1(
12
#964
0(
02
#965
b1000 5
1.
1(
12
#966
0(
02
#967
b0 5
0.
1(
12
#968
0(
02
#969
1(
12
#970
0(
02
#971
1(
12
#972
0(
02
#973
1(
12
#974
0(
02
#975
1(
12
#976
0(
02
#977
1(
12
#978
0(
02
#979
1(
12
#980
0(
02
#981
1(
12
#982
0(
02
#983
1(
12
#984
0(
02
#985
b1 5
1(
12
1,
1$
1-
1%
#986
0(
02
#987
b11 5
1(
12
#988
0(
02
#989
b111 5
1/
1(
12
#990
0(
02
#991
b1111 5
0/
1(
12
#992
0(
02
#993
1(
12
#994
0(
02
#995
1(
12
#996
0(
02
#997
1(
12
#998
0(
02
#999
1(
12
#1000
0(
02
#1001
1(
12
#1002
0(
02
#1003
1(
12
#1004
0(
02
#1005
1(
12
#1006
0(
02
#1007
1(
12
#1008
0(
02
#1009
1(
12
#1010
0(
02
0,
0$
#1011
b1110 5
1(
12
#1012
0(
02
#1013
b1100 5
1(
12
#1014
0(
02
#1015
b1000 5
1.
1(
12
#1016
0(
02
#1017
b0 5
0.
1(
12
#1018
0(
02
#1019
1(
12
#1020
0(
02
#1021
1(
12
#1022
0(
02
#1023
1(
12
#1024
0(
02
#1025
1(
12
#1026
0(
02
#1027
1(
12
#1028
0(
02
#1029
1(
12
#1030
0(
02
#1031
1(
12
#1032
0(
02
#1033
1(
12
#1034
0(
02
#1035
b1 5
1(
12
1,
1$
#1036
0(
02
#1037
b11 5
1(
12
#1038
0(
02
#1039
b111 5
1/
1(
12
#1040
0(
02
#1041
b1111 5
0/
1(
12
